…
## Part 1: Description of “Instacart” dataset: This data contains 1384617 total observations. Some key variables include order ID, product ID, order number, and product name, describing the various instacart orders. Some examples of observations in the product\_name category include Bulgarian Yogurt, Spring Water, Organic Half & Half, Asparagus, etc.

## Part 2: How many aisles are there, and which aisles are the most items ordered from?

There are 134 asiles. The aisles that most items are ordered from
include: fresh vegetables, other creams cheeses, fresh fruits, packaged
cheese, and canned meat seafood.

``` r
instacart %>% 
    group_by(aisle) %>% 
    arrange(instacart, desc(aisle))
```

    ## # A tibble: 1,384,617 × 15
    ## # Groups:   aisle [134]
    ##    order_id product_id add_to_cart_order reordered user_id eval_set order_number
    ##       <int>      <int>             <int>     <int>   <int> <chr>           <int>
    ##  1        1      10246                 3         0  112108 train               4
    ##  2        1      11109                 2         1  112108 train               4
    ##  3        1      13176                 6         0  112108 train               4
    ##  4        1      22035                 8         1  112108 train               4
    ##  5        1      43633                 5         1  112108 train               4
    ##  6        1      47209                 7         0  112108 train               4
    ##  7        1      49302                 1         1  112108 train               4
    ##  8        1      49683                 4         0  112108 train               4
    ##  9       36      19660                 2         1   79431 train              23
    ## 10       36      34497                 6         1   79431 train              23
    ## # … with 1,384,607 more rows, and 8 more variables: order_dow <int>,
    ## #   order_hour_of_day <int>, days_since_prior_order <int>, product_name <chr>,
    ## #   aisle_id <int>, department_id <int>, aisle <chr>, department <chr>

count month / name observations

``` r
instacart %>% 
  group_by(aisle) %>%
  summarize(n_obs = n())
```

    ## # A tibble: 134 × 2
    ##    aisle                  n_obs
    ##    <chr>                  <int>
    ##  1 air fresheners candles  1067
    ##  2 asian foods             7007
    ##  3 baby accessories         306
    ##  4 baby bath body care      328
    ##  5 baby food formula      13198
    ##  6 bakery desserts         1501
    ##  7 baking ingredients     13088
    ##  8 baking supplies decor   1094
    ##  9 beauty                   287
    ## 10 beers coolers           1839
    ## # … with 124 more rows

``` r
instacart %>% 
  count(aisle, name = "n_obs")
```

    ## # A tibble: 134 × 2
    ##    aisle                  n_obs
    ##    <chr>                  <int>
    ##  1 air fresheners candles  1067
    ##  2 asian foods             7007
    ##  3 baby accessories         306
    ##  4 baby bath body care      328
    ##  5 baby food formula      13198
    ##  6 bakery desserts         1501
    ##  7 baking ingredients     13088
    ##  8 baking supplies decor   1094
    ##  9 beauty                   287
    ## 10 beers coolers           1839
    ## # … with 124 more rows

``` r
  arrange(instacart, desc(aisle))
```

    ## # A tibble: 1,384,617 × 15
    ##    order_id product_id add_to_cart_order reordered user_id eval_set order_number
    ##       <int>      <int>             <int>     <int>   <int> <chr>           <int>
    ##  1        1      49302                 1         1  112108 train               4
    ##  2       98      43654                 3         1   56463 train              41
    ##  3      170       8153                 6         0  182389 train               7
    ##  4      631       9203                13         1  184099 train               7
    ##  5      631      15842                14         1  184099 train               7
    ##  6      878      23044                 3         0   61911 train               9
    ##  7      915      19977                11         0  166117 train               4
    ##  8     1032      11063                 1         1  164808 train              18
    ##  9     1145      47409                 9         1  127134 train              10
    ## 10     1145       5069                17         1  127134 train              10
    ## # … with 1,384,607 more rows, and 8 more variables: order_dow <int>,
    ## #   order_hour_of_day <int>, days_since_prior_order <int>, product_name <chr>,
    ## #   aisle_id <int>, department_id <int>, aisle <chr>, department <chr>
…
